Clock_Divider.vcd
$date
	Tue Feb 07 23:12:55 2023
$end
$version
	ModelSim Version 10.1d
$end
$timescale
	1ps
$end
$scope module Clock_Divider_tb $end
$var parameter 32 ! CLK_PER $end
$var reg 1 " I_ref_clk_tb $end
$var reg 1 # I_rst_n_tb $end
$var reg 1 $ I_clk_en_tb $end
$var reg 4 % I_div_ratio_tb [3:0] $end
$var wire 1 & O_div_clk_tb $end
$scope task initialize $end
$upscope $end
$scope task reset $end
$upscope $end
$scope task divide $end
$var reg 4 ' div [3:0] $end
$upscope $end
$scope module DUT $end
$var wire 1 ( I_ref_clk $end
$var wire 1 ) I_rst_n $end
$var wire 1 * I_clk_en $end
$var wire 1 + I_div_ratio [3] $end
$var wire 1 , I_div_ratio [2] $end
$var wire 1 - I_div_ratio [1] $end
$var wire 1 . I_div_ratio [0] $end
$var wire 1 & O_div_clk $end
$var wire 1 / odd $end
$var wire 1 0 enable $end
$var wire 1 1 e_toggle $end
$var wire 1 2 o_toggle $end
$var reg 1 3 div_clock $end
$var reg 1 4 tog1 $end
$var reg 1 5 tog2 $end
$var reg 4 6 edge_counter [3:0] $end
$upscope $end
$upscope $end
$enddefinitions $end
#0
$dumpvars
0"
0#
0$
bx %
bx '
03
04
05
b0 6
b1010 !
0&
x/
00
x1
x2
x.
x-
x,
x+
0*
0)
0(
$end
#5000
1"
1(
1&
#10000
0"
0(
0&
#15000
1"
1(
1&
#20000
1#
b10 '
1$
b10 %
0"
1*
0.
1-
0,
0+
10
02
01
0/
0&
1)
0(
#25000
1"
1(
13
b1 6
1&
11
#30000
0"
0(
#35000
1"
1(
b10 6
03
b1 6
0&
#40000
0"
0(
#45000
1"
1(
b10 6
13
b1 6
1&
#50000
0"
0(
#55000
1"
1(
b10 6
03
b1 6
0&
#60000
0"
0(
#65000
1"
1(
b10 6
13
b1 6
1&
#70000
0"
0(
#75000
1"
1(
b10 6
03
b1 6
0&
#80000
0"
0(
#85000
1"
1(
b10 6
13
b1 6
1&
#90000
0"
0(
#95000
1"
1(
b10 6
03
b1 6
0&
#100000
0"
0(
#105000
1"
1(
b10 6
13
b1 6
1&
#110000
0"
0(
#115000
1"
1(
b10 6
03
b1 6
0&
#120000
0"
0(
#125000
1"
1(
b10 6
13
b1 6
1&
#130000
0"
0(
#135000
1"
1(
b10 6
03
b1 6
0&
#140000
0"
0(
#145000
1"
1(
b10 6
13
b1 6
1&
#150000
0"
0(
#155000
1"
1(
b10 6
03
b1 6
0&
#160000
0"
0(
#165000
1"
1(
b10 6
13
b1 6
1&
#170000
0"
0(
#175000
1"
1(
b10 6
03
b1 6
0&
#180000
0"
0(
#185000
1"
1(
b10 6
13
b1 6
1&
#190000
0"
0(
#195000
1"
1(
b10 6
03
b1 6
0&
#200000
0"
0(
#205000
1"
1(
b10 6
13
b1 6
1&
#210000
0"
0(
#215000
1"
1(
b10 6
03
b1 6
0&
#220000
0#
0"
0)
0(
b0 6
01
#225000
1"
1(
#230000
0"
0(
#235000
1"
1(
#240000
1#
b11 '
b11 %
0"
1.
1/
1)
0(
#245000
1"
1(
13
b1 6
1&
11
#250000
0"
0(
#255000
1"
1(
b10 6
12
01
#260000
0"
0(
#265000
1"
1(
b11 6
03
b1 6
14
02
11
0&
#270000
0"
0(
#275000
1"
1(
b10 6
13
b1 6
04
15
1&
#280000
0"
0(
#285000
1"
1(
b10 6
12
01
#290000
0"
0(
#295000
1"
1(
b11 6
03
b1 6
14
05
02
11
0&
#300000
0"
0(
#305000
1"
1(
b10 6
13
b1 6
04
15
1&
#310000
0"
0(
#315000
1"
1(
b10 6
12
01
#320000
0"
0(
#325000
1"
1(
b11 6
03
b1 6
14
05
02
11
0&
#330000
0"
0(
#335000
1"
1(
b10 6
13
b1 6
04
15
1&
#340000
0"
0(
#345000
1"
1(
b10 6
12
01
#350000
0"
0(
#355000
1"
1(
b11 6
03
b1 6
14
05
02
11
0&
#360000
0"
0(
#365000
1"
1(
b10 6
13
b1 6
04
15
1&
#370000
0"
0(
#375000
1"
1(
b10 6
12
01
#380000
0"
0(
#385000
1"
1(
b11 6
03
b1 6
14
05
02
11
0&
#390000
0"
0(
#395000
1"
1(
b10 6
13
b1 6
04
15
1&
#400000
0"
0(
#405000
1"
1(
b10 6
12
01
#410000
0"
0(
#415000
1"
1(
b11 6
03
b1 6
14
05
02
11
0&
#420000
0"
0(
#425000
1"
1(
b10 6
13
b1 6
04
15
1&
#430000
0"
0(
#435000
1"
1(
b10 6
12
01
#440000
0#
0"
0)
0(
b0 6
05
03
02
0&
#445000
1"
1(
#450000
0"
0(
#455000
1"
1(
#460000
1#
b100 '
b100 %
0"
0.
0-
1,
0/
1)
0(
#465000
1"
1(
13
b1 6
1&
#470000
0"
0(
#475000
1"
1(
b10 6
11
#480000
0"
0(
#485000
1"
1(
b11 6
03
b1 6
01
0&
#490000
0"
0(
#495000
1"
1(
b10 6
11
#500000
0"
0(
#505000
1"
1(
b11 6
13
b1 6
01
1&
#510000
0"
0(
#515000
1"
1(
b10 6
11
#520000
0"
0(
#525000
1"
1(
b11 6
03
b1 6
01
0&
#530000
0"
0(
#535000
1"
1(
b10 6
11
#540000
0"
0(
#545000
1"
1(
b11 6
13
b1 6
01
1&
#550000
0"
0(
#555000
1"
1(
b10 6
11
#560000
0"
0(
#565000
1"
1(
b11 6
03
b1 6
01
0&
#570000
0"
0(
#575000
1"
1(
b10 6
11
#580000
0"
0(
#585000
1"
1(
b11 6
13
b1 6
01
1&
#590000
0"
0(
#595000
1"
1(
b10 6
11
#600000
0"
0(
#605000
1"
1(
b11 6
03
b1 6
01
0&
#610000
0"
0(
#615000
1"
1(
b10 6
11
#620000
0"
0(
#625000
1"
1(
b11 6
13
b1 6
01
1&
#630000
0"
0(
#635000
1"
1(
b10 6
11
#640000
0"
0(
#645000
1"
1(
b11 6
03
b1 6
01
0&
#650000
0"
0(
#655000
1"
1(
b10 6
11
#660000
0#
0"
0)
0(
b0 6
01
#665000
1"
1(
#670000
0"
0(
#675000
1"
1(
#680000
1#
b101 '
b101 %
0"
1.
1/
1)
0(
#685000
1"
1(
13
b1 6
1&
#690000
0"
0(
#695000
1"
1(
b10 6
11
#700000
0"
0(
#705000
1"
1(
b11 6
12
01
#710000
0"
0(
#715000
1"
1(
b100 6
03
b1 6
14
02
0&
#720000
0"
0(
#725000
1"
1(
b10 6
11
#730000
0"
0(
#735000
1"
1(
b11 6
13
b1 6
04
15
01
1&
#740000
0"
0(
#745000
1"
1(
b10 6
11
#750000
0"
0(
#755000
1"
1(
b11 6
12
01
#760000
0"
0(
#765000
1"
1(
b100 6
03
b1 6
14
05
02
0&
#770000
0"
0(
#775000
1"
1(
b10 6
11
#780000
0"
0(
#785000
1"
1(
b11 6
13
b1 6
04
15
01
1&
#790000
0"
0(
#795000
1"
1(
b10 6
11
#800000
0"
0(
#805000
1"
1(
b11 6
12
01
#810000
0"
0(
#815000
1"
1(
b100 6
03
b1 6
14
05
02
0&
#820000
0"
0(
#825000
1"
1(
b10 6
11
#830000
0"
0(
#835000
1"
1(
b11 6
13
b1 6
04
15
01
1&
#840000
0"
0(
#845000
1"
1(
b10 6
11
#850000
0"
0(
#855000
1"
1(
b11 6
12
01
#860000
0"
0(
#865000
1"
1(
b100 6
03
b1 6
14
05
02
0&
#870000
0"
0(
#875000
1"
1(
b10 6
11
#880000
0#
0"
0)
0(
b0 6
04
01
#885000
1"
1(
#890000
0"
0(
#895000
1"
1(
#900000
1#
b110 '
b110 %
0"
0.
1-
0/
1)
0(
#905000
1"
1(
13
b1 6
1&
#910000
0"
0(
#915000
1"
1(
b10 6
#920000
0"
0(
#925000
1"
1(
b11 6
11
#930000
0"
0(
#935000
1"
1(
b100 6
03
b1 6
01
0&
#940000
0"
0(
#945000
1"
1(
b10 6
#950000
0"
0(
#955000
1"
1(
b11 6
11
#960000
0"
0(
#965000
1"
1(
b100 6
13
b1 6
01
1&
#970000
0"
0(
#975000
1"
1(
b10 6
#980000
0"
0(
#985000
1"
1(
b11 6
11
#990000
0"
0(
#995000
1"
1(
b100 6
03
b1 6
01
0&
#1000000
0"
0(
#1005000
1"
1(
b10 6
#1010000
0"
0(
#1015000
1"
1(
b11 6
11
#1020000
0"
0(
#1025000
1"
1(
b100 6
13
b1 6
01
1&
#1030000
0"
0(
#1035000
1"
1(
b10 6
#1040000
0"
0(
#1045000
1"
1(
b11 6
11
#1050000
0"
0(
#1055000
1"
1(
b100 6
03
b1 6
01
0&
#1060000
0"
0(
#1065000
1"
1(
b10 6
#1070000
0"
0(
#1075000
1"
1(
b11 6
11
#1080000
0"
0(
#1085000
1"
1(
b100 6
13
b1 6
01
1&
#1090000
0"
0(
#1095000
1"
1(
b10 6
#1100000
0#
0"
0)
0(
b0 6
03
0&
#1105000
1"
1(
#1110000
0"
0(
#1115000
1"
1(
#1120000
1#
b111 '
b111 %
0"
1.
1/
1)
0(
#1125000
1"
1(
13
b1 6
1&
#1130000
0"
0(
#1135000
1"
1(
b10 6
#1140000
0"
0(
#1145000
1"
1(
b11 6
11
#1150000
0"
0(
#1155000
1"
1(
b100 6
12
01
#1160000
0"
0(
#1165000
1"
1(
b101 6
03
b1 6
14
02
0&
#1170000
0"
0(
#1175000
1"
1(
b10 6
#1180000
0"
0(
#1185000
1"
1(
b11 6
11
#1190000
0"
0(
#1195000
1"
1(
b100 6
13
b1 6
04
15
01
1&
#1200000
0"
0(
#1205000
1"
1(
b10 6
#1210000
0"
0(
#1215000
1"
1(
b11 6
11
#1220000
0"
0(
#1225000
1"
1(
b100 6
12
01
#1230000
0"
0(
#1235000
1"
1(
b101 6
03
b1 6
14
05
02
0&
#1240000
0"
0(
#1245000
1"
1(
b10 6
#1250000
0"
0(
#1255000
1"
1(
b11 6
11
#1260000
0"
0(
#1265000
1"
1(
b100 6
13
b1 6
04
15
01
1&
#1270000
0"
0(
#1275000
1"
1(
b10 6
#1280000
0"
0(
#1285000
1"
1(
b11 6
11
#1290000
0"
0(
#1295000
1"
1(
b100 6
12
01
#1300000
0"
0(
#1305000
1"
1(
b101 6
03
b1 6
14
05
02
0&
#1310000
0"
0(
#1315000
1"
1(
b10 6
#1320000
0#
0"
0)
0(
b0 6
04
#1325000
1"
1(
#1330000
0"
0(
#1335000
1"
1(
#1340000
1#
b1000 '
b1000 %
0"
0.
0-
0,
1+
0/
1)
0(
#1345000
1"
1(
13
b1 6
1&
#1350000
0"
0(
#1355000
1"
1(
b10 6
#1360000
0"
0(
#1365000
1"
1(
b11 6
#1370000
0"
0(
#1375000
1"
1(
b100 6
11
#1380000
0"
0(
#1385000
1"
1(
b101 6
03
b1 6
01
0&
#1390000
0"
0(
#1395000
1"
1(
b10 6
#1400000
0"
0(
#1405000
1"
1(
b11 6
#1410000
0"
0(
#1415000
1"
1(
b100 6
11
#1420000
0"
0(
#1425000
1"
1(
b101 6
13
b1 6
01
1&
#1430000
0"
0(
#1435000
1"
1(
b10 6
#1440000
0"
0(
#1445000
1"
1(
b11 6
#1450000
0"
0(
#1455000
1"
1(
b100 6
11
#1460000
0"
0(
#1465000
1"
1(
b101 6
03
b1 6
01
0&
#1470000
0"
0(
#1475000
1"
1(
b10 6
#1480000
0"
0(
#1485000
1"
1(
b11 6
#1490000
0"
0(
#1495000
1"
1(
b100 6
11
#1500000
0"
0(
#1505000
1"
1(
b101 6
13
b1 6
01
1&
#1510000
0"
0(
#1515000
1"
1(
b10 6
#1520000
0"
0(
#1525000
1"
1(
b11 6
#1530000
0"
0(
#1535000
1"
1(
b100 6
11
#1540000
0#
0"
0)
0(
b0 6
03
01
0&
#1545000
1"
1(
#1550000
0"
0(
#1555000
1"
1(
#1560000
1#
b1 '
b1 %
0"
1.
0+
11
1/
00
1&
1)
0(
0&
